{
  "disabled": false,
  "bindings": [
    {
      "authLevel": "function",
      "type": "httpTrigger",
      "direction": "in",
      "name": "req",
      "methods": ["get"]
    },
    {
      "type": "http",
      "direction": "out",
      "name": "res"
    },
    {
      "type": "cosmosDB",
      "name": "documents",
      "direction": "in",
      "databaseName": "hpsc-hp-sample-book-comos-database",
      "collectionName": "hpsc-hp-sample-book-comos-collection",
      "connectionStringSetting": "hpsc-hp-sample-book-comos_DOCUMENTDB",
      "createLeaseCollectionIfNotExists": true
    }
  ]
}

